<?xml version="1.0" standalone="no"?>
<!DOCTYPE svg PUBLIC "-//W3C//DTD SVG 1.1//EN" "http://www.w3.org/Graphics/SVG/1.1/DTD/svg11.dtd" >
<svg xmlns="http://www.w3.org/2000/svg">
<metadata>Generated by IcoMoon</metadata>
<defs>
<font id="ebrew" horiz-adv-x="2048">
<font-face units-per-em="2048" ascent="2048" descent="0" />
<missing-glyph horiz-adv-x="2048" />
<glyph unicode="&#x20;" d="" horiz-adv-x="0" />
<glyph unicode="&#xe600;" d="M191.296 398.036c56.216 207.74 113.75 415.142 167.594 623.494 11.646 45.066 30.028 60.464 77.578 60.066 283.596-2.366 567.218-1.168 850.832-1.164 19.2 0 38.402 0 76.27 0-87.21 69.178-91.974 148.774-77.856 235.746-15.29 0-27.248-0.102-39.202 0.016-102.778 0.998-168.886 87.708-135.644 195.11 31.004 100.172 78.092 195.364 118.102 292.744 6.91-0.236 13.816-0.466 20.726-0.702 42.036-85.536 84.070-171.064 128.386-261.236 22.040 36.3 43.254 71.244 69.144 113.88 73.974-129.712 146.798-251.16 166.61-395.352 6.776-49.298-11.202-93.576-68.618-180.312 42.202 0 80.078 2.988 117.066-1.444 15.188-1.824 37.464-17.12 41.252-30.58 57.298-203.68 112.194-408.028 167.052-612.384 3.204-11.932 1.332-25.226 1.818-37.882-560.372 0.004-1120.742 0.004-1681.108 0.004zM1116.242 755.296c-1.138 0-2.276 0-3.414 0 0 51.22 0.902 102.462-0.256 153.656-1.116 49.128-37.422 60.244-75.84 60.056-37.99-0.188-75.454-10.35-76.624-59.46-2.316-96.916-3.814-193.872-3.69-290.812 0.054-42.75 32.926-66.898 82.728-65.428 51.070 1.508 77.032 25.124 77.084 70.25 0.054 43.914 0.010 87.824 0.010 131.738zM1224.26 897.1c6.96-97.080 12.324-188.212 20.51-279.094 3.906-43.33 46.838-69.36 97.916-64.456 48.136 4.618 64.918 29.394 58.028 77.606-12.644 88.522-21.814 177.55-31.862 266.432-5.784 51.184-36.272 76.548-88.078 72.016-49.4-4.326-66.53-31.566-56.514-72.506zM670.91 615.322c3.042-8.91 5.75-41.718 16.96-44.938 31.284-8.986 69.198-14.538 98.42-4.22 19.92 7.028 39.272 41.852 42.164 66.23 10.324 86.952 11.574 174.944 20.222 262.146 4.088 41.216-3.724 67.622-48.468 74.544-47.018 7.274-88.78-16.638-94.172-58.286-12.198-94.178-22.546-188.596-35.128-295.476zM445.268 553.308c53.36 0.5 89.258 28.172 96.742 76.972 14.888 97.076 29.98 194.162 41.498 291.656 1.604 13.6-13.204 37.516-26.16 42.952-47.6 19.974-102.216-11.272-112.386-61.532-19.116-94.468-37.266-189.128-55.142-283.838-9.546-50.582 4.51-66.686 55.448-66.21zM1646.366 553.356c6.97 6.948 39.958 26.15 37.824 39.874-17.404 111.71-37.25 223.458-65.336 332.89-11.584 45.126-59.896 48.538-101.822 40.12-44.802-8.998-28.58-42.17-24.506-69.772 12.532-84.882 25.478-169.708 37.56-254.652 8.386-59.012 40.156-88.472 116.28-88.462z" />
<glyph unicode="&#xe601;" d="M598.74 889.276c-2.356-10.306-3.7-20.48-7.048-29.948-7.14-20.178-17.796-39.468-22.152-60.146-2.644-12.55 0.77-28.528 6.7-40.338 18.372-36.59 49.386-61.638 84.386-81.304 22.056-12.392 45.090-23.352 68.536-32.854 15.514-6.288 32.542-8.834 48.882-13.096 19.742-5.148 39.254-11.528 59.266-15.228 27.418-5.068 55.428-6.982 82.796-12.26 66.018-12.728 132.52-3.646 198.748-5.148 23.752-0.538 47.682 6.862 71.532 10.628 20.74 3.274 41.818 5.16 62.16 10.082 41.524 10.048 82.698 21.084 122.046 38.74 38.218 17.15 73.788 37.922 100.636 70.026 12.692 15.174 22.876 34.308 27.942 53.318 3.266 12.252-3.91 27.812-8.038 41.392-6.608 21.732-14.576 43.048-22.81 66.992 22.926-8.090 43.022-14.508 62.588-22.276 19.37-7.688 38.012-17.196 57.312-25.082 27.216-11.124 54.83-21.27 82.11-32.24 39.874-16.032 80.15-31.234 119.182-49.13 22.022-10.096 44.566-22.44 52.926-48.102 7.386-22.674-0.666-51.342-24.174-67.688-33.626-23.382-69.316-42.754-106.572-59.822-23.728-10.872-45.57-25.8-68.568-38.348-36.222-19.76-72.844-38.792-109.034-58.614-31.644-17.332-62.842-35.47-94.384-52.988-23.686-13.152-47.358-26.368-71.474-38.7-31.632-16.174-63.974-30.972-95.498-47.344-35.052-18.2-69.024-38.538-104.48-55.872-16.506-8.070-35.1-12.916-53.294-16.224-24.406-4.44-49.342-8.196-74.048-8.166-27.706 0.036-55.438 4.324-83.088 7.396-10.054 1.116-20.466 2.672-29.742 6.43-26.102 10.57-52.22 21.344-77.358 33.976-31.642 15.898-62.21 33.922-93.44 50.656-39.594 21.218-79.304 42.22-119.12 63.016-32.386 16.916-65.26 32.916-97.44 50.208-33.374 17.932-66.166 36.946-99.232 55.458-28.644 16.038-57.028 32.564-86.048 47.89-27.904 14.736-57.922 25.95-84.318 42.904-23.914 15.358-49.56 31.682-51.592 66.156-1.020 17.278 11.932 42.348 29.182 50.71 22.246 10.784 43.878 22.884 66.386 33.060 25.202 11.396 51.17 21.090 76.66 31.858 36.436 15.388 72.452 31.812 109.198 46.412 30.48 12.112 61.76 22.222 93.77 33.606zM1324.702 1270.528c7.534-20.164 14.344-38.114 20.954-56.134 8.382-22.854 16.842-45.684 24.81-68.686 5.344-15.428 9.428-31.296 14.904-46.674 7.3-20.516 13.128-42.032 23.734-60.77 13.086-23.124 6.956-41.752-6.248-60.702-21.764-31.238-52.656-50.496-86.496-66.22-46.636-21.674-95.766-34.326-146.344-41.834-19.268-2.862-39.51-1.534-58-6.748-37.804-10.664-76.024-6.050-113.638-4.536-44.458 1.788-89.334 5.296-132.59 18.698-13.612 4.218-28.816 3.524-42.202 8.196-25.176 8.786-49.718 19.476-74.23 30.054-22.476 9.7-44.328 21.488-60.184 40.276-13.3 15.754-24.556 33.674-33.884 52.072-2.912 5.744 2.654 16.442 5.61 24.4 19.582 52.766 39.836 105.286 59.192 158.132 9.392 25.646 17.32 51.826 26.944 80.89 20.78-30.070 46.276-49.516 76.546-61.678 24.264-9.746 49.566-16.954 74.534-24.888 34.070-10.824 70.494-7.22 104.378-14.2 42.3-8.712 82.336 2.058 122.794 3.978 45.608 2.166 91.246 17.020 132.902 38.228 25.838 13.15 49.542 30.326 66.512 58.146zM1035.194 1431.244c-9.1 0-18.2 0.048-27.3-0.008-34.906-0.222-68.074 7.316-100.924 19.182-24.674 8.912-46.892 19.902-66.166 38.208-9.426 8.952-9.372 18.732-6.448 27.276 13.368 39.056 28.55 77.482 42.678 116.284 8.112 22.272 14.902 45.034 23.326 67.178 7.308 19.208 14.298 38.918 24.718 56.454 10.148 17.074 29.27 23.66 47.666 29.882 34.82 11.778 70.892 7.796 105.85 4.898 27.408-2.272 55.234-12.584 71.932-38.286 6.62-10.188 11.452-21.77 15.668-33.244 13.12-35.714 25.758-71.606 38.184-107.572 8.102-23.452 15.27-47.228 23.344-70.692 3.218-9.352 9.036-17.93 11.42-27.424 5.602-22.316-13.376-32.652-26.614-41.212-19.468-12.59-42.184-20.98-64.476-28.198-36.522-11.832-74.478-15.208-112.86-12.724z" />
<glyph unicode="&#xe602;" d="M717.578 183.062c-42.83 18.748-89.198 32.060-127.844 57.232-130.132 84.762-153.81 275.14-49.584 389.878 112.546 123.896 183.366 266.572 205.804 434.072 23.162-171.67 101.176-314.37 212.988-444.326 125.798-146.21 37.974-385.102-150.464-424.908-12.116-2.562-23.654-7.906-35.458-11.954-18.48 0.002-36.966 0.002-55.444 0.002zM539.024 461.466c0.266-121.554 95.608-216.536 195.618-211.178 19.428 1.038 37.704 23.742 56.508 36.454-17.624 17.488-32.716 45.62-53.338 50.542-72.314 17.268-92.298 37.008-110.262 109.296-5.312 21.378-32.66 37.278-49.908 55.696-16.428-17.364-32.854-34.724-38.616-40.814zM596.036 1243.352c0 44.034-2.344 82.742 0.558 121.058 4.178 55.19 54.262 103.402 109.54 103.62 247.356 1.014 494.728 1.014 742.082 0.014 55.44-0.22 96.284-41.938 101.006-96.486 5.296-61.214-25.022-109.594-78.682-122.682-19.554-4.764-40.080-7.722-60.164-7.758-260.282-0.452-520.568-0.246-780.848-0.086-8.97 0.004-17.932 1.202-33.49 2.318zM1166.196 1676.646c54.006 47.986 70.51 47.952 122.738 1.992 54.31 83.84 101.276 108.394 169.254 88.46 47.738-13.998 89.224-71.296 88.212-121.838-0.998-49.8-40.090-103.72-85.554-117.992-67.602-21.22-115.946 2.664-171.958 85.958-40.512-41.904-81.28-44.6-120.762 1.474-50.31-82.818-97.042-107.338-167.58-88.29-52.914 14.282-87.76 65.774-85.596 126.456 2.038 57.052 39.696 103.906 92.718 115.344 70.628 15.238 115.64-10.178 158.532-91.574zM744.318 1202.822c53.38-0.010 107.066 3.184 159.95-1.916 16.3-1.572 30.412-25.758 45.532-39.594-14.788-15.206-29.12-43.028-44.44-43.582-106.616-3.848-213.52-4.1-320.104 0.2-15.732 0.634-30.242 31.412-45.322 48.244 16.59 12.22 32.354 33.344 49.924 34.98 51.096 4.744 102.92 1.678 154.458 1.666z" />
<glyph unicode="&#xe603;" d="M527.938 183.060c-36.868 16.138-76.774 27.596-110.038 49.266-112.004 72.954-132.388 236.818-42.678 335.572 96.87 106.64 157.824 229.448 177.136 373.618 19.938-147.762 87.086-270.586 183.324-382.44 108.278-125.844 32.686-331.462-129.51-365.724-10.428-2.202-20.352-6.802-30.516-10.292-15.906-0.002-31.818-0.002-47.722-0.002zM374.258 422.69c0.222-104.626 82.29-186.376 168.372-181.758 16.72 0.894 32.452 20.434 48.636 31.374-15.17 15.052-28.158 39.266-45.91 43.5-62.244 14.862-79.444 31.854-94.908 94.072-4.568 18.402-28.108 32.088-42.954 47.94-14.14-14.94-28.28-29.88-33.234-35.128zM423.33 1095.674c0 37.9-2.022 71.218 0.478 104.196 3.596 47.506 46.702 88.998 94.282 89.188 212.908 0.874 425.82 0.874 638.724 0.014 47.718-0.192 82.872-36.094 86.938-83.048 4.554-52.69-21.538-94.33-67.724-105.594-16.83-4.1-34.498-6.646-51.782-6.676-224.030-0.386-448.064-0.208-672.090-0.074-7.724 0.002-15.442 1.034-28.828 1.992zM914.072 1468.618c46.484 41.302 60.69 41.274 105.642 1.714 46.744 72.164 87.17 93.296 145.676 76.138 41.090-12.046 76.798-61.366 75.924-104.868-0.856-42.866-34.504-89.272-73.638-101.558-58.188-18.264-99.794 2.294-148.004 73.986-34.868-36.070-69.96-38.39-103.94 1.27-43.304-71.284-83.528-92.388-144.24-75.99-45.544 12.294-75.538 56.612-73.676 108.844 1.756 49.102 34.17 89.432 79.806 99.282 60.786 13.12 99.528-8.758 136.448-78.814zM550.954 1060.788c45.946-0.008 92.152 2.74 137.674-1.65 14.026-1.352 26.176-22.17 39.188-34.078-12.728-13.086-25.064-37.040-38.248-37.514-91.768-3.314-183.78-3.528-275.518 0.176-13.542 0.546-26.030 27.032-39.010 41.526 14.278 10.518 27.848 28.7 42.97 30.106 43.984 4.082 88.584 1.444 132.942 1.434zM1767.014 1773.638v-410.278h-171.768v155.566l-51.408 1.676v-157.242h-171.772v410.278h171.772v-127.362l51.408 1.676v125.684h171.768z" />
<glyph unicode="&#xe604;" d="M989.106 1880.874c135.002-125.304 265.316-253.164 381.354-394.918 70.198-85.756 133.65-176.024 181.698-276.178 75.442-157.26 109.306-322.572 82.19-496.128-30.208-193.342-183.658-349.284-374.278-383.060 63.92 51.972 112.094 111.77 144.694 182.482 94.824 205.704 69.648 403.482-44.24 593.7-52.762 88.132-120.99 163.346-204.338 235.634 23.438-197.884-21.374-373.722-119.512-545.37-15.72 96.866-50.672 175.818-123.888 239.040-8.922-27.438-15.162-52.904-25.328-76.69-27.934-65.382-59.314-129.334-86.036-195.188-41.464-102.178-57.82-205.734 6.212-305.424 26.024-40.512 58.234-77.044 87.6-115.346-109.874 41.556-208.016 102.494-274.206 204.758-94.628 146.2-94.232 303.788-36.504 460.452 33.626 91.258 81.346 178.040 129.27 263.154 77.928 138.392 163.52 272.696 216.722 423.508 21.218 60.136 38.536 121.64 58.594 185.582z" />
<glyph unicode="&#xe605;" d="M1727.162 1747.052c0-436.31 0-872.616 0-1308.926-20.072-57.070-58.636-95.634-115.708-115.706-366.4 0-732.806 0-1099.208 0-57.080 20.056-95.61 58.666-115.706 115.706 0 436.31 0 872.616 0 1308.926 20.072 57.066 58.692 95.582 115.706 115.706 366.402 0 732.806 0 1099.208 0 57.002-20.134 95.674-58.598 115.708-115.706zM468.214 1092.588c0-202.354-0.042-404.71 0.020-607.060 0.020-66.54 24.86-91.406 91.318-91.416 334.848-0.042 669.696-0.042 1004.544 0 66.45 0.010 91.368 24.916 91.374 91.346 0.040 404.71 0.040 809.42 0 1214.128-0.006 66.564-24.836 91.464-91.314 91.474-334.848 0.058-669.696 0.054-1004.544 0.004-66.394-0.008-91.358-25.004-91.38-91.408-0.058-202.358-0.018-404.716-0.018-607.070zM977.724 1680.478c170.7-164.78 343.532-321.862 447.936-535.196 69.042-141.068 98.808-290.118 53.67-444.876-38.69-132.652-155.55-235.632-275.756-252.056 242.508 225.612 182.204 571.070-92.478 801.42 14.236-154.864-15.408-294.598-95.538-429.716-14.548 75.314-40.784 136.814-98.95 186.296-38.618-99.33-81.666-194.288-112-293.142-23.768-77.46 4.746-149.574 57.23-210.876 10.904-12.734 21.98-25.324 30.67-40.204-125.406 48.336-221.932 126.4-256.338 262.982-31.71 125.892-1.242 244.046 57.744 355.39 45.62 86.118 96.428 169.468 144.27 254.422 58.126 103.21 105.31 210.924 131.606 327.010 1.022 4.524 3.648 8.686 7.932 18.554z" horiz-adv-x="2112" />
</font></defs></svg>